-------------------------------------------------------------------------------
Test set: com.cesi.goodfood.GoodfoodApplicationTests
-------------------------------------------------------------------------------
Tests run: 1, Failures: 0, Errors: 0, Skipped: 0, Time elapsed: 15.691 s - in com.cesi.goodfood.GoodfoodApplicationTests
